<?xml version="1.0" encoding="UTF-8"?>
<!DOCTYPE svg PUBLIC '-//W3C//DTD SVG 1.0//EN'
          'http://www.w3.org/TR/2001/REC-SVG-20010904/DTD/svg10.dtd'>
<svg fill-opacity="0" xmlns:xlink="http://www.w3.org/1999/xlink" color-rendering="auto" color-interpolation="auto" text-rendering="auto" stroke="rgb(0,0,0)" stroke-linecap="square" width="932" stroke-miterlimit="10" shape-rendering="auto" stroke-opacity="0" fill="rgb(0,0,0)" stroke-dasharray="none" font-weight="normal" stroke-width="1" height="405" xmlns="http://www.w3.org/2000/svg" font-family="'Dialog'" font-style="normal" stroke-linejoin="miter" font-size="12px" stroke-dashoffset="0" image-rendering="auto"
><!--Generated by the Batik Graphics2D SVG Generator--><defs id="genericDefs"
  /><g
  ><defs id="defs1"
    ><clipPath clipPathUnits="userSpaceOnUse" id="clipPath1"
      ><path d="M-7 -7 L334 -7 L334 212 L-7 212 L-7 -7 Z"
      /></clipPath
      ><clipPath clipPathUnits="userSpaceOnUse" id="clipPath2"
      ><path d="M0 0 L0 19 L315 19 L315 0 Z"
      /></clipPath
      ><clipPath clipPathUnits="userSpaceOnUse" id="clipPath3"
      ><path d="M0 0 L0 174 L314 174 L314 0 Z"
      /></clipPath
      ><clipPath clipPathUnits="userSpaceOnUse" id="clipPath4"
      ><path d="M-7 -7 L237 -7 L237 148 L-7 148 L-7 -7 Z"
      /></clipPath
      ><clipPath clipPathUnits="userSpaceOnUse" id="clipPath5"
      ><path d="M0 0 L0 104 L226 104 L226 0 Z"
      /></clipPath
      ><clipPath clipPathUnits="userSpaceOnUse" id="clipPath6"
      ><path d="M0 0 L0 137 L202 137 L202 0 Z"
      /></clipPath
      ><clipPath clipPathUnits="userSpaceOnUse" id="clipPath7"
      ><path d="M-7 -7 L145 -7 L145 63 L-7 63 L-7 -7 Z"
      /></clipPath
      ><clipPath clipPathUnits="userSpaceOnUse" id="clipPath8"
      ><path d="M0 0 L0 19 L134 19 L134 0 Z"
      /></clipPath
      ><clipPath clipPathUnits="userSpaceOnUse" id="clipPath9"
      ><path d="M0 0 L0 52 L110 52 L110 0 Z"
      /></clipPath
      ><clipPath clipPathUnits="userSpaceOnUse" id="clipPath10"
      ><path d="M-7 -7 L391 -7 L391 172 L-7 172 L-7 -7 Z"
      /></clipPath
      ><clipPath clipPathUnits="userSpaceOnUse" id="clipPath11"
      ><path d="M0 0 L0 19 L372 19 L372 0 Z"
      /></clipPath
      ><clipPath clipPathUnits="userSpaceOnUse" id="clipPath12"
      ><path d="M0 0 L0 134 L371 134 L371 0 Z"
      /></clipPath
      ><clipPath clipPathUnits="userSpaceOnUse" id="clipPath13"
      ><path d="M-7 -7 L154 -7 L154 83 L-7 83 L-7 -7 Z"
      /></clipPath
      ><clipPath clipPathUnits="userSpaceOnUse" id="clipPath14"
      ><path d="M0 0 L0 39 L143 39 L143 0 Z"
      /></clipPath
      ><clipPath clipPathUnits="userSpaceOnUse" id="clipPath15"
      ><path d="M0 0 L0 72 L119 72 L119 0 Z"
      /></clipPath
      ><clipPath clipPathUnits="userSpaceOnUse" id="clipPath16"
      ><path d="M-7 -7 L241 -7 L241 140 L-7 140 L-7 -7 Z"
      /></clipPath
      ><clipPath clipPathUnits="userSpaceOnUse" id="clipPath17"
      ><path d="M0 0 L0 19 L222 19 L222 0 Z"
      /></clipPath
      ><clipPath clipPathUnits="userSpaceOnUse" id="clipPath18"
      ><path d="M0 0 L0 102 L221 102 L221 0 Z"
      /></clipPath
      ><clipPath clipPathUnits="userSpaceOnUse" id="clipPath19"
      ><path d="M-7 -7 L187 -7 L187 75 L-7 75 L-7 -7 Z"
      /></clipPath
      ><clipPath clipPathUnits="userSpaceOnUse" id="clipPath20"
      ><path d="M0 0 L0 31 L176 31 L176 0 Z"
      /></clipPath
      ><clipPath clipPathUnits="userSpaceOnUse" id="clipPath21"
      ><path d="M0 0 L0 64 L152 64 L152 0 Z"
      /></clipPath
      ><clipPath clipPathUnits="userSpaceOnUse" id="clipPath22"
      ><path d="M-7 -7 L153 -7 L153 83 L-7 83 L-7 -7 Z"
      /></clipPath
      ><clipPath clipPathUnits="userSpaceOnUse" id="clipPath23"
      ><path d="M0 0 L0 39 L142 39 L142 0 Z"
      /></clipPath
      ><clipPath clipPathUnits="userSpaceOnUse" id="clipPath24"
      ><path d="M0 0 L0 72 L118 72 L118 0 Z"
      /></clipPath
      ><clipPath clipPathUnits="userSpaceOnUse" id="clipPath25"
      ><path d="M0 0 L259 0 L259 176 L0 176 L0 0 Z"
      /></clipPath
      ><clipPath clipPathUnits="userSpaceOnUse" id="clipPath26"
      ><path d="M151 25 L151 40 L80 40 L80 25 ZM0 0 L0 176 L259 176 L259 0 Z"
      /></clipPath
      ><clipPath clipPathUnits="userSpaceOnUse" id="clipPath27"
      ><path d="M0 0 L104 0 L104 173 L0 173 L0 0 Z"
      /></clipPath
      ><clipPath clipPathUnits="userSpaceOnUse" id="clipPath28"
      ><path d="M0 0 L0 173 L104 173 L104 93 L55 93 L55 78 L104 78 L104 0 Z"
      /></clipPath
      ><clipPath clipPathUnits="userSpaceOnUse" id="clipPath29"
      ><path d="M-71 -15 L142 -15 L142 30 L-71 30 L-71 -15 Z"
      /></clipPath
    ></defs
    ><g fill="white" text-rendering="geometricPrecision" fill-opacity="1" stroke-opacity="1" stroke="white"
    ><rect x="0" width="932" height="405" y="0" stroke="none"
    /></g
    ><g font-size="11px" transform="translate(190,2)" fill-opacity="1" fill="rgb(122,207,245)" text-rendering="geometricPrecision" image-rendering="optimizeQuality" font-family="sans-serif" stroke="rgb(122,207,245)" font-weight="bold" stroke-opacity="1"
    ><path d="M8 0 L322 0 L314 8 L0 8 Z" stroke="none" clip-path="url(#clipPath1)"
      /><path d="M322 0 L322 192 L314 200 L314 8 Z" clip-path="url(#clipPath1)" stroke="none"
      /><rect x="0" width="314" height="192" y="8" clip-path="url(#clipPath1)" stroke="none"
    /></g
    ><g fill-opacity="1" text-rendering="geometricPrecision" stroke="black" stroke-linecap="butt" transform="translate(190,2)" stroke-miterlimit="0" stroke-opacity="1" fill="black" font-weight="bold" font-family="sans-serif" stroke-linejoin="round" font-size="11px" image-rendering="optimizeQuality"
    ><path fill="none" d="M8 0 L322 0 L314 8 L0 8 Z" clip-path="url(#clipPath1)"
      /><path fill="none" d="M322 0 L322 192 L314 200 L314 8 Z" clip-path="url(#clipPath1)"
      /><rect fill="none" x="0" width="314" height="192" y="8" clip-path="url(#clipPath1)"
    /></g
    ><g font-size="11px" transform="translate(190,10)" fill-opacity="1" fill="black" text-rendering="geometricPrecision" image-rendering="optimizeQuality" font-family="sans-serif" stroke="black" font-weight="bold" stroke-opacity="1"
    ><text x="118" xml:space="preserve" y="16" clip-path="url(#clipPath2)" stroke="none"
      >localhost:8080</text
    ></g
    ><g font-size="11px" transform="translate(238,47)" fill-opacity="1" fill="rgb(122,207,245)" text-rendering="geometricPrecision" image-rendering="optimizeQuality" font-family="sans-serif" stroke="rgb(122,207,245)" font-weight="bold" stroke-opacity="1"
    ><rect x="0" width="226" height="137" y="0" clip-path="url(#clipPath4)" stroke="none"
    /></g
    ><g fill-opacity="1" text-rendering="geometricPrecision" stroke="black" stroke-linecap="butt" transform="translate(238,47)" stroke-miterlimit="0" stroke-opacity="1" fill="black" font-weight="bold" font-family="sans-serif" stroke-linejoin="round" font-size="11px" image-rendering="optimizeQuality"
    ><rect fill="none" x="0" width="225" height="136" y="0" clip-path="url(#clipPath4)"
      /><line stroke-linecap="square" clip-path="url(#clipPath4)" fill="none" x1="210" x2="220" y1="5" y2="5" stroke-linejoin="miter" stroke-miterlimit="10"
      /><line stroke-linecap="square" clip-path="url(#clipPath4)" fill="none" x1="220" x2="220" y1="5" y2="21" stroke-linejoin="miter" stroke-miterlimit="10"
      /><line stroke-linecap="square" clip-path="url(#clipPath4)" fill="none" x1="210" x2="220" y1="21" y2="21" stroke-linejoin="miter" stroke-miterlimit="10"
      /><line stroke-linecap="square" clip-path="url(#clipPath4)" fill="none" x1="210" x2="210" y1="5" y2="8" stroke-linejoin="miter" stroke-miterlimit="10"
      /><rect stroke-linecap="square" x="207" y="8" clip-path="url(#clipPath4)" fill="none" width="7" stroke-linejoin="miter" height="4" stroke-miterlimit="10"
      /><line stroke-linecap="square" clip-path="url(#clipPath4)" fill="none" x1="210" x2="210" y1="12" y2="14" stroke-linejoin="miter" stroke-miterlimit="10"
      /><rect stroke-linecap="square" x="207" y="14" clip-path="url(#clipPath4)" fill="none" width="7" stroke-linejoin="miter" height="4" stroke-miterlimit="10"
      /><line stroke-linecap="square" clip-path="url(#clipPath4)" fill="none" x1="210" x2="210" y1="18" y2="21" stroke-linejoin="miter" stroke-miterlimit="10"
    /></g
    ><g font-size="11px" transform="translate(238,47)" fill-opacity="1" fill="black" text-rendering="geometricPrecision" image-rendering="optimizeQuality" font-family="sans-serif" stroke="black" stroke-opacity="1"
    ><text x="60" xml:space="preserve" y="15" clip-path="url(#clipPath6)" stroke="none"
      >&lt;&lt;component&gt;&gt;</text
      ><text x="78" xml:space="preserve" y="30" clip-path="url(#clipPath6)" font-weight="bold" stroke="none"
      >Browser</text
    ></g
    ><g font-size="11px" transform="translate(284,102)" fill-opacity="1" fill="rgb(122,207,245)" text-rendering="geometricPrecision" image-rendering="optimizeQuality" font-family="sans-serif" stroke="rgb(122,207,245)" font-weight="bold" stroke-opacity="1"
    ><rect x="0" width="134" height="52" y="0" clip-path="url(#clipPath7)" stroke="none"
    /></g
    ><g fill-opacity="1" text-rendering="geometricPrecision" stroke="black" stroke-linecap="butt" transform="translate(284,102)" stroke-miterlimit="0" stroke-opacity="1" fill="black" font-weight="bold" font-family="sans-serif" stroke-linejoin="round" font-size="11px" image-rendering="optimizeQuality"
    ><rect fill="none" x="0" width="133" height="51" y="0" clip-path="url(#clipPath7)"
      /><line stroke-linecap="square" clip-path="url(#clipPath7)" fill="none" x1="118" x2="128" y1="5" y2="5" stroke-linejoin="miter" stroke-miterlimit="10"
      /><line stroke-linecap="square" clip-path="url(#clipPath7)" fill="none" x1="128" x2="128" y1="5" y2="21" stroke-linejoin="miter" stroke-miterlimit="10"
      /><line stroke-linecap="square" clip-path="url(#clipPath7)" fill="none" x1="118" x2="128" y1="21" y2="21" stroke-linejoin="miter" stroke-miterlimit="10"
      /><line stroke-linecap="square" clip-path="url(#clipPath7)" fill="none" x1="118" x2="118" y1="5" y2="8" stroke-linejoin="miter" stroke-miterlimit="10"
      /><rect stroke-linecap="square" x="115" y="8" clip-path="url(#clipPath7)" fill="none" width="7" stroke-linejoin="miter" height="4" stroke-miterlimit="10"
      /><line stroke-linecap="square" clip-path="url(#clipPath7)" fill="none" x1="118" x2="118" y1="12" y2="14" stroke-linejoin="miter" stroke-miterlimit="10"
      /><rect stroke-linecap="square" x="115" y="14" clip-path="url(#clipPath7)" fill="none" width="7" stroke-linejoin="miter" height="4" stroke-miterlimit="10"
      /><line stroke-linecap="square" clip-path="url(#clipPath7)" fill="none" x1="118" x2="118" y1="18" y2="21" stroke-linejoin="miter" stroke-miterlimit="10"
    /></g
    ><g font-size="11px" transform="translate(284,102)" fill-opacity="1" fill="black" text-rendering="geometricPrecision" image-rendering="optimizeQuality" font-family="sans-serif" stroke="black" stroke-opacity="1"
    ><text x="14" xml:space="preserve" y="15" clip-path="url(#clipPath9)" stroke="none"
      >&lt;&lt;component&gt;&gt;</text
      ><text x="49" xml:space="preserve" y="30" clip-path="url(#clipPath9)" font-weight="bold" stroke="none"
      >UI</text
    ></g
    ><g font-size="11px" transform="translate(548,221)" fill-opacity="1" fill="rgb(122,207,245)" text-rendering="geometricPrecision" image-rendering="optimizeQuality" font-family="sans-serif" stroke="rgb(122,207,245)" font-weight="bold" stroke-opacity="1"
    ><path d="M8 0 L379 0 L371 8 L0 8 Z" stroke="none" clip-path="url(#clipPath10)"
      /><path d="M379 0 L379 152 L371 160 L371 8 Z" clip-path="url(#clipPath10)" stroke="none"
      /><rect x="0" width="371" height="152" y="8" clip-path="url(#clipPath10)" stroke="none"
    /></g
    ><g fill-opacity="1" text-rendering="geometricPrecision" stroke="black" stroke-linecap="butt" transform="translate(548,221)" stroke-miterlimit="0" stroke-opacity="1" fill="black" font-weight="bold" font-family="sans-serif" stroke-linejoin="round" font-size="11px" image-rendering="optimizeQuality"
    ><path fill="none" d="M8 0 L379 0 L371 8 L0 8 Z" clip-path="url(#clipPath10)"
      /><path fill="none" d="M379 0 L379 152 L371 160 L371 8 Z" clip-path="url(#clipPath10)"
      /><rect fill="none" x="0" width="371" height="152" y="8" clip-path="url(#clipPath10)"
    /></g
    ><g font-size="11px" transform="translate(548,229)" fill-opacity="1" fill="black" text-rendering="geometricPrecision" image-rendering="optimizeQuality" font-family="sans-serif" stroke="black" font-weight="bold" stroke-opacity="1"
    ><text x="112" xml:space="preserve" y="16" clip-path="url(#clipPath11)" stroke="none"
      >Web Server Apache Tomcat</text
    ></g
    ><g font-size="11px" transform="translate(581,281)" fill-opacity="1" fill="rgb(122,207,245)" text-rendering="geometricPrecision" image-rendering="optimizeQuality" font-family="sans-serif" stroke="rgb(122,207,245)" font-weight="bold" stroke-opacity="1"
    ><rect x="0" width="143" height="72" y="0" clip-path="url(#clipPath13)" stroke="none"
    /></g
    ><g fill-opacity="1" text-rendering="geometricPrecision" stroke="black" stroke-linecap="butt" transform="translate(581,281)" stroke-miterlimit="0" stroke-opacity="1" fill="black" font-weight="bold" font-family="sans-serif" stroke-linejoin="round" font-size="11px" image-rendering="optimizeQuality"
    ><rect fill="none" x="0" width="142" height="71" y="0" clip-path="url(#clipPath13)"
      /><line stroke-linecap="square" clip-path="url(#clipPath13)" fill="none" x1="127" x2="137" y1="5" y2="5" stroke-linejoin="miter" stroke-miterlimit="10"
      /><line stroke-linecap="square" clip-path="url(#clipPath13)" fill="none" x1="137" x2="137" y1="5" y2="21" stroke-linejoin="miter" stroke-miterlimit="10"
      /><line stroke-linecap="square" clip-path="url(#clipPath13)" fill="none" x1="127" x2="137" y1="21" y2="21" stroke-linejoin="miter" stroke-miterlimit="10"
      /><line stroke-linecap="square" clip-path="url(#clipPath13)" fill="none" x1="127" x2="127" y1="5" y2="8" stroke-linejoin="miter" stroke-miterlimit="10"
      /><rect stroke-linecap="square" x="124" y="8" clip-path="url(#clipPath13)" fill="none" width="7" stroke-linejoin="miter" height="4" stroke-miterlimit="10"
      /><line stroke-linecap="square" clip-path="url(#clipPath13)" fill="none" x1="127" x2="127" y1="12" y2="14" stroke-linejoin="miter" stroke-miterlimit="10"
      /><rect stroke-linecap="square" x="124" y="14" clip-path="url(#clipPath13)" fill="none" width="7" stroke-linejoin="miter" height="4" stroke-miterlimit="10"
      /><line stroke-linecap="square" clip-path="url(#clipPath13)" fill="none" x1="127" x2="127" y1="18" y2="21" stroke-linejoin="miter" stroke-miterlimit="10"
    /></g
    ><g font-size="11px" transform="translate(581,281)" fill-opacity="1" fill="black" text-rendering="geometricPrecision" image-rendering="optimizeQuality" font-family="sans-serif" stroke="black" stroke-opacity="1"
    ><text x="18" xml:space="preserve" y="15" clip-path="url(#clipPath15)" stroke="none"
      >&lt;&lt;component&gt;&gt;</text
      ><text x="33" xml:space="preserve" y="30" clip-path="url(#clipPath15)" font-weight="bold" stroke="none"
      >SWS App</text
    ></g
    ><g font-size="11px" transform="translate(2,272)" fill-opacity="1" fill="rgb(122,207,245)" text-rendering="geometricPrecision" image-rendering="optimizeQuality" font-family="sans-serif" stroke="rgb(122,207,245)" font-weight="bold" stroke-opacity="1"
    ><path d="M8 0 L229 0 L221 8 L0 8 Z" stroke="none" clip-path="url(#clipPath16)"
      /><path d="M229 0 L229 120 L221 128 L221 8 Z" clip-path="url(#clipPath16)" stroke="none"
      /><rect x="0" width="221" height="120" y="8" clip-path="url(#clipPath16)" stroke="none"
    /></g
    ><g fill-opacity="1" text-rendering="geometricPrecision" stroke="black" stroke-linecap="butt" transform="translate(2,272)" stroke-miterlimit="0" stroke-opacity="1" fill="black" font-weight="bold" font-family="sans-serif" stroke-linejoin="round" font-size="11px" image-rendering="optimizeQuality"
    ><path fill="none" d="M8 0 L229 0 L221 8 L0 8 Z" clip-path="url(#clipPath16)"
      /><path fill="none" d="M229 0 L229 120 L221 128 L221 8 Z" clip-path="url(#clipPath16)"
      /><rect fill="none" x="0" width="221" height="120" y="8" clip-path="url(#clipPath16)"
    /></g
    ><g font-size="11px" transform="translate(2,280)" fill-opacity="1" fill="black" text-rendering="geometricPrecision" image-rendering="optimizeQuality" font-family="sans-serif" stroke="black" font-weight="bold" stroke-opacity="1"
    ><text x="64" xml:space="preserve" y="16" clip-path="url(#clipPath17)" stroke="none"
      >Virtual Server DEI</text
    ></g
    ><g font-size="11px" transform="translate(28,318)" fill-opacity="1" fill="rgb(122,207,245)" text-rendering="geometricPrecision" image-rendering="optimizeQuality" font-family="sans-serif" stroke="rgb(122,207,245)" font-weight="bold" stroke-opacity="1"
    ><rect x="0" width="176" height="64" y="0" clip-path="url(#clipPath19)" stroke="none"
    /></g
    ><g fill-opacity="1" text-rendering="geometricPrecision" stroke="black" stroke-linecap="butt" transform="translate(28,318)" stroke-miterlimit="0" stroke-opacity="1" fill="black" font-weight="bold" font-family="sans-serif" stroke-linejoin="round" font-size="11px" image-rendering="optimizeQuality"
    ><rect fill="none" x="0" width="175" height="63" y="0" clip-path="url(#clipPath19)"
      /><line stroke-linecap="square" clip-path="url(#clipPath19)" fill="none" x1="160" x2="170" y1="5" y2="5" stroke-linejoin="miter" stroke-miterlimit="10"
      /><line stroke-linecap="square" clip-path="url(#clipPath19)" fill="none" x1="170" x2="170" y1="5" y2="21" stroke-linejoin="miter" stroke-miterlimit="10"
      /><line stroke-linecap="square" clip-path="url(#clipPath19)" fill="none" x1="160" x2="170" y1="21" y2="21" stroke-linejoin="miter" stroke-miterlimit="10"
      /><line stroke-linecap="square" clip-path="url(#clipPath19)" fill="none" x1="160" x2="160" y1="5" y2="8" stroke-linejoin="miter" stroke-miterlimit="10"
      /><rect stroke-linecap="square" x="157" y="8" clip-path="url(#clipPath19)" fill="none" width="7" stroke-linejoin="miter" height="4" stroke-miterlimit="10"
      /><line stroke-linecap="square" clip-path="url(#clipPath19)" fill="none" x1="160" x2="160" y1="12" y2="14" stroke-linejoin="miter" stroke-miterlimit="10"
      /><rect stroke-linecap="square" x="157" y="14" clip-path="url(#clipPath19)" fill="none" width="7" stroke-linejoin="miter" height="4" stroke-miterlimit="10"
      /><line stroke-linecap="square" clip-path="url(#clipPath19)" fill="none" x1="160" x2="160" y1="18" y2="21" stroke-linejoin="miter" stroke-miterlimit="10"
    /></g
    ><g font-size="11px" transform="translate(28,318)" fill-opacity="1" fill="black" text-rendering="geometricPrecision" image-rendering="optimizeQuality" font-family="sans-serif" stroke="black" stroke-opacity="1"
    ><text x="35" xml:space="preserve" y="15" clip-path="url(#clipPath21)" stroke="none"
      >&lt;&lt;component&gt;&gt;</text
      ><text x="7" xml:space="preserve" y="30" clip-path="url(#clipPath21)" font-weight="bold" stroke="none"
      >Category External System</text
    ></g
    ><g font-size="11px" transform="translate(751,281)" fill-opacity="1" fill="rgb(122,207,245)" text-rendering="geometricPrecision" image-rendering="optimizeQuality" font-family="sans-serif" stroke="rgb(122,207,245)" font-weight="bold" stroke-opacity="1"
    ><rect x="0" width="142" height="72" y="0" clip-path="url(#clipPath22)" stroke="none"
    /></g
    ><g fill-opacity="1" text-rendering="geometricPrecision" stroke="black" stroke-linecap="butt" transform="translate(751,281)" stroke-miterlimit="0" stroke-opacity="1" fill="black" font-weight="bold" font-family="sans-serif" stroke-linejoin="round" font-size="11px" image-rendering="optimizeQuality"
    ><rect fill="none" x="0" width="141" height="71" y="0" clip-path="url(#clipPath22)"
      /><line stroke-linecap="square" clip-path="url(#clipPath22)" fill="none" x1="126" x2="136" y1="5" y2="5" stroke-linejoin="miter" stroke-miterlimit="10"
      /><line stroke-linecap="square" clip-path="url(#clipPath22)" fill="none" x1="136" x2="136" y1="5" y2="21" stroke-linejoin="miter" stroke-miterlimit="10"
      /><line stroke-linecap="square" clip-path="url(#clipPath22)" fill="none" x1="126" x2="136" y1="21" y2="21" stroke-linejoin="miter" stroke-miterlimit="10"
      /><line stroke-linecap="square" clip-path="url(#clipPath22)" fill="none" x1="126" x2="126" y1="5" y2="8" stroke-linejoin="miter" stroke-miterlimit="10"
      /><rect stroke-linecap="square" x="123" y="8" clip-path="url(#clipPath22)" fill="none" width="7" stroke-linejoin="miter" height="4" stroke-miterlimit="10"
      /><line stroke-linecap="square" clip-path="url(#clipPath22)" fill="none" x1="126" x2="126" y1="12" y2="14" stroke-linejoin="miter" stroke-miterlimit="10"
      /><rect stroke-linecap="square" x="123" y="14" clip-path="url(#clipPath22)" fill="none" width="7" stroke-linejoin="miter" height="4" stroke-miterlimit="10"
      /><line stroke-linecap="square" clip-path="url(#clipPath22)" fill="none" x1="126" x2="126" y1="18" y2="21" stroke-linejoin="miter" stroke-miterlimit="10"
    /></g
    ><g font-size="11px" transform="translate(751,281)" fill-opacity="1" fill="black" text-rendering="geometricPrecision" image-rendering="optimizeQuality" font-family="sans-serif" stroke="black" stroke-opacity="1"
    ><text x="18" xml:space="preserve" y="15" clip-path="url(#clipPath24)" stroke="none"
      >&lt;&lt;component&gt;&gt;</text
      ><text x="25" xml:space="preserve" y="30" clip-path="url(#clipPath24)" font-weight="bold" stroke="none"
      >H2 Database</text
    ></g
    ><g stroke-linecap="butt" font-size="11px" transform="translate(462,98)" fill-opacity="1" fill="black" text-rendering="geometricPrecision" image-rendering="optimizeQuality" font-family="sans-serif" stroke-linejoin="round" stroke="black" stroke-opacity="1"
    ><line y2="50" fill="none" x1="50" clip-path="url(#clipPath26)" x2="205" y1="50"
      /><line y2="122" fill="none" x1="205" clip-path="url(#clipPath26)" x2="205" y1="50"
    /></g
    ><g stroke-linecap="butt" font-size="11px" transform="translate(156,152)" fill-opacity="1" fill="black" text-rendering="geometricPrecision" image-rendering="optimizeQuality" font-family="sans-serif" stroke-linejoin="round" stroke="black" stroke-opacity="1"
    ><line y2="119" fill="none" x1="50" clip-path="url(#clipPath28)" x2="50" y1="50"
    /></g
    ><g font-size="11px" transform="translate(211,230)" fill-opacity="1" fill="black" text-rendering="geometricPrecision" image-rendering="optimizeQuality" font-family="sans-serif" stroke="black" stroke-opacity="1"
    ><text x="9" xml:space="preserve" y="12" clip-path="url(#clipPath29)" stroke="none"
      >REST API</text
    ></g
    ><g font-size="11px" transform="translate(542,123)" fill-opacity="1" fill="black" text-rendering="geometricPrecision" image-rendering="optimizeQuality" font-family="sans-serif" stroke="black" stroke-opacity="1"
    ><text x="9" xml:space="preserve" y="12" clip-path="url(#clipPath29)" stroke="none"
      >REST API</text
    ></g
    ><g font-size="8px" fill-opacity="1" fill="rgb(120,120,120)" text-rendering="geometricPrecision" image-rendering="optimizeQuality" stroke="rgb(120,120,120)" stroke-opacity="1"
    ><text x="0" xml:space="preserve" y="10" stroke="none"
      >Visual Paradigm Standard(Instituto Superior de Engenharia do Porto)</text
    ></g
  ></g
></svg
>
