@startuml
'https://plantuml.com/class-diagram
skinparam linetype ortho

folder "OPT SYSTEM"{
    folder "INFRASTRUCTURES"{
        package persistence #Strategy{}
        package routes {}
    }

    folder "INTERFACE ADAPTERS"{
        package controllers{}
        package repositories{}
    }

    folder "APPLICATION SERVICES / USE CASE SERVICES"{
       package appServices{}
    }

    folder "ENTITIES / CORE / DOMAIN"{
        package aggregates{}
        package valueObjects{}
        package factories{}
     package services{}
    }
}

routes ...> controllers

controllers ...> appServices

appServices ...> aggregates
appServices ...> valueObjects
appServices ...> factories
appServices ...> services

repositories ...> persistence

repositories ...|> appServices

@enduml
