<?xml version="1.0" encoding="UTF-8"?>
<!DOCTYPE svg PUBLIC '-//W3C//DTD SVG 1.0//EN'
          'http://www.w3.org/TR/2001/REC-SVG-20010904/DTD/svg10.dtd'>
<svg fill-opacity="0" xmlns:xlink="http://www.w3.org/1999/xlink" color-rendering="auto" color-interpolation="auto" text-rendering="auto" stroke="rgb(0,0,0)" stroke-linecap="square" width="1454" stroke-miterlimit="10" shape-rendering="auto" stroke-opacity="0" fill="rgb(0,0,0)" stroke-dasharray="none" font-weight="normal" stroke-width="1" height="711" xmlns="http://www.w3.org/2000/svg" font-family="'Dialog'" font-style="normal" stroke-linejoin="miter" font-size="12px" stroke-dashoffset="0" image-rendering="auto"
><!--Generated by the Batik Graphics2D SVG Generator--><defs id="genericDefs"
  /><g
  ><defs id="defs1"
    ><clipPath clipPathUnits="userSpaceOnUse" id="clipPath1"
      ><path d="M-7 -7 L71 -7 L71 716 L-7 716 L-7 -7 Z"
      /></clipPath
      ><clipPath clipPathUnits="userSpaceOnUse" id="clipPath2"
      ><path d="M-7 -7 L124 -7 L124 716 L-7 716 L-7 -7 Z"
      /></clipPath
      ><clipPath clipPathUnits="userSpaceOnUse" id="clipPath3"
      ><path d="M-7 -7 L167 -7 L167 716 L-7 716 L-7 -7 Z"
      /></clipPath
      ><clipPath clipPathUnits="userSpaceOnUse" id="clipPath4"
      ><path d="M-7 -7 L131 -7 L131 716 L-7 716 L-7 -7 Z"
      /></clipPath
      ><clipPath clipPathUnits="userSpaceOnUse" id="clipPath5"
      ><path d="M-7 -7 L104 -7 L104 716 L-7 716 L-7 -7 Z"
      /></clipPath
      ><clipPath clipPathUnits="userSpaceOnUse" id="clipPath6"
      ><path d="M-7 -7 L19 -7 L19 521 L-7 521 L-7 -7 Z"
      /></clipPath
      ><clipPath clipPathUnits="userSpaceOnUse" id="clipPath7"
      ><path d="M-7 -7 L19 -7 L19 453 L-7 453 L-7 -7 Z"
      /></clipPath
      ><clipPath clipPathUnits="userSpaceOnUse" id="clipPath8"
      ><path d="M-7 -7 L19 -7 L19 84 L-7 84 L-7 -7 Z"
      /></clipPath
      ><clipPath clipPathUnits="userSpaceOnUse" id="clipPath9"
      ><path d="M-7 -7 L19 -7 L19 384 L-7 384 L-7 -7 Z"
      /></clipPath
      ><clipPath clipPathUnits="userSpaceOnUse" id="clipPath10"
      ><path d="M-96 -14 L192 -14 L192 28 L-96 28 L-96 -14 Z"
      /></clipPath
      ><clipPath clipPathUnits="userSpaceOnUse" id="clipPath11"
      ><path d="M-113 -14 L226 -14 L226 28 L-113 28 L-113 -14 Z"
      /></clipPath
      ><clipPath clipPathUnits="userSpaceOnUse" id="clipPath12"
      ><path d="M-156 -14 L312 -14 L312 28 L-156 28 L-156 -14 Z"
      /></clipPath
      ><clipPath clipPathUnits="userSpaceOnUse" id="clipPath13"
      ><path d="M-120 -14 L240 -14 L240 28 L-120 28 L-120 -14 Z"
      /></clipPath
      ><clipPath clipPathUnits="userSpaceOnUse" id="clipPath14"
      ><path d="M-93 -28 L186 -28 L186 56 L-93 56 L-93 -28 Z"
      /></clipPath
      ><clipPath clipPathUnits="userSpaceOnUse" id="clipPath15"
      ><path d="M0 0 L419 0 L419 129 L0 129 L0 0 Z"
      /></clipPath
      ><clipPath clipPathUnits="userSpaceOnUse" id="clipPath16"
      ><path d="M255 42 L255 56 L157 56 L157 42 ZM0 0 L0 129 L419 129 L419 85 L384 85 L384 28 L419 28 L419 0 L118 0 L118 1 L22 1 L22 0 Z"
      /></clipPath
      ><clipPath clipPathUnits="userSpaceOnUse" id="clipPath17"
      ><path d="M0 0 L461 0 L461 129 L0 129 L0 0 Z"
      /></clipPath
      ><clipPath clipPathUnits="userSpaceOnUse" id="clipPath18"
      ><path d="M374 3 L374 60 L87 60 L87 3 ZM0 0 L0 129 L461 129 L461 83 L422 83 L422 40 L461 40 L461 0 Z"
      /></clipPath
      ><clipPath clipPathUnits="userSpaceOnUse" id="clipPath19"
      ><path d="M0 0 L436 0 L436 129 L0 129 L0 0 Z"
      /></clipPath
      ><clipPath clipPathUnits="userSpaceOnUse" id="clipPath20"
      ><path d="M347 27 L347 60 L82 60 L82 27 ZM276 106 L276 120 L150 120 L150 106 ZM0 0 L0 129 L436 129 L436 0 Z"
      /></clipPath
      ><clipPath clipPathUnits="userSpaceOnUse" id="clipPath21"
      ><path d="M333 14 L333 54 L85 54 L85 14 ZM0 0 L0 129 L419 129 L419 0 Z"
      /></clipPath
      ><clipPath clipPathUnits="userSpaceOnUse" id="clipPath22"
      ><path d="M0 0 L536 0 L536 129 L0 129 L0 0 Z"
      /></clipPath
      ><clipPath clipPathUnits="userSpaceOnUse" id="clipPath23"
      ><path d="M450 15 L450 58 L82 58 L82 15 ZM34 0 L34 35 L0 35 L0 129 L536 129 L536 0 Z"
      /></clipPath
      ><clipPath clipPathUnits="userSpaceOnUse" id="clipPath24"
      ><path d="M0 0 L159 0 L159 149 L0 149 L0 0 Z"
      /></clipPath
      ><clipPath clipPathUnits="userSpaceOnUse" id="clipPath25"
      ><path d="M0 0 L0 149 L159 149 L159 147 L82 147 L82 114 L159 114 L159 76 L105 76 L105 62 L159 62 L159 0 Z"
      /></clipPath
      ><clipPath clipPathUnits="userSpaceOnUse" id="clipPath26"
      ><path d="M276 45 L276 59 L150 59 L150 45 ZM0 0 L0 129 L103 129 L103 120 L339 120 L339 129 L436 129 L436 0 Z"
      /></clipPath
      ><clipPath clipPathUnits="userSpaceOnUse" id="clipPath27"
      ><path d="M325 42 L325 55 L199 55 L199 42 ZM0 0 L0 129 L536 129 L536 17 L518 17 L518 0 Z"
      /></clipPath
      ><clipPath clipPathUnits="userSpaceOnUse" id="clipPath28"
      ><path d="M278 44 L278 58 L173 58 L173 44 ZM0 0 L0 57 L36 57 L36 97 L0 97 L0 129 L461 129 L461 0 Z"
      /></clipPath
      ><clipPath clipPathUnits="userSpaceOnUse" id="clipPath29"
      ><path d="M0 0 L0 149 L159 149 L159 97 L103 97 L103 58 L159 58 L159 0 Z"
      /></clipPath
      ><clipPath clipPathUnits="userSpaceOnUse" id="clipPath30"
      ><path d="M-236 -39 L472 -39 L472 78 L-236 78 L-236 -39 Z"
      /></clipPath
      ><clipPath clipPathUnits="userSpaceOnUse" id="clipPath31"
      ><path d="M-105 -14 L210 -14 L210 28 L-105 28 L-105 -14 Z"
      /></clipPath
      ><clipPath clipPathUnits="userSpaceOnUse" id="clipPath32"
      ><path d="M-126 -13 L252 -13 L252 26 L-126 26 L-126 -13 Z"
      /></clipPath
      ><clipPath clipPathUnits="userSpaceOnUse" id="clipPath33"
      ><path d="M-126 -14 L252 -14 L252 28 L-126 28 L-126 -14 Z"
      /></clipPath
      ><clipPath clipPathUnits="userSpaceOnUse" id="clipPath34"
      ><path d="M-244 -14 L488 -14 L488 28 L-244 28 L-244 -14 Z"
      /></clipPath
      ><clipPath clipPathUnits="userSpaceOnUse" id="clipPath35"
      ><path d="M-368 -43 L736 -43 L736 86 L-368 86 L-368 -43 Z"
      /></clipPath
      ><clipPath clipPathUnits="userSpaceOnUse" id="clipPath36"
      ><path d="M-248 -40 L496 -40 L496 80 L-248 80 L-248 -40 Z"
      /></clipPath
      ><clipPath clipPathUnits="userSpaceOnUse" id="clipPath37"
      ><path d="M-265 -33 L530 -33 L530 66 L-265 66 L-265 -33 Z"
      /></clipPath
      ><clipPath clipPathUnits="userSpaceOnUse" id="clipPath38"
      ><path d="M-287 -57 L574 -57 L574 114 L-287 114 L-287 -57 Z"
      /></clipPath
      ><clipPath clipPathUnits="userSpaceOnUse" id="clipPath39"
      ><path d="M-98 -14 L196 -14 L196 28 L-98 28 L-98 -14 Z"
      /></clipPath
    ></defs
    ><g fill="white" text-rendering="geometricPrecision" fill-opacity="1" stroke-opacity="1" stroke="white"
    ><rect x="0" width="1454" height="711" y="0" stroke="none"
    /></g
    ><g font-size="11px" transform="translate(6,2)" fill-opacity="1" fill="white" text-rendering="geometricPrecision" image-rendering="optimizeQuality" font-family="sans-serif" stroke="white" stroke-opacity="1"
    ><circle r="5" clip-path="url(#clipPath1)" cx="30" cy="5" stroke="none"
      /><rect x="26" width="8" height="655" y="49" clip-path="url(#clipPath1)" stroke="none"
    /></g
    ><g stroke-linecap="butt" font-size="11px" transform="translate(6,2)" fill-opacity="1" fill="black" text-rendering="geometricPrecision" image-rendering="optimizeQuality" font-family="sans-serif" stroke-linejoin="round" stroke="black" stroke-opacity="1" stroke-miterlimit="0"
    ><circle fill="none" r="5" clip-path="url(#clipPath1)" cx="30" cy="5"
      /><rect fill="none" x="26" width="8" height="655" y="49" clip-path="url(#clipPath1)"
      /><line y2="25" fill="none" x1="30" clip-path="url(#clipPath1)" x2="30" y1="10"
      /><line y2="36" fill="none" x1="30" clip-path="url(#clipPath1)" x2="21" y1="25"
      /><line y2="36" fill="none" x1="30" clip-path="url(#clipPath1)" x2="39" y1="25"
      /><line y2="16" fill="none" x1="21" clip-path="url(#clipPath1)" x2="39" y1="16"
    /></g
    ><g font-size="11px" transform="translate(277,2)" fill-opacity="1" fill="white" text-rendering="geometricPrecision" image-rendering="optimizeQuality" font-family="sans-serif" stroke="white" stroke-opacity="1"
    ><rect x="0" width="112" height="35" y="0" clip-path="url(#clipPath2)" stroke="none"
    /></g
    ><g stroke-linecap="butt" font-size="11px" transform="translate(277,2)" fill-opacity="1" fill="black" text-rendering="geometricPrecision" image-rendering="optimizeQuality" font-family="sans-serif" stroke-linejoin="round" stroke="black" stroke-opacity="1" stroke-miterlimit="0"
    ><rect fill="none" x="0" width="112" height="35" y="0" clip-path="url(#clipPath2)"
      /><line clip-path="url(#clipPath2)" fill="none" x1="56" x2="56" y1="35" y2="705" stroke-linejoin="bevel" stroke-dasharray="8,3"
    /></g
    ><g font-size="11px" transform="translate(596,2)" fill-opacity="1" fill="white" text-rendering="geometricPrecision" image-rendering="optimizeQuality" font-family="sans-serif" stroke="white" stroke-opacity="1"
    ><rect x="0" width="155" height="35" y="0" clip-path="url(#clipPath3)" stroke="none"
    /></g
    ><g stroke-linecap="butt" font-size="11px" transform="translate(596,2)" fill-opacity="1" fill="black" text-rendering="geometricPrecision" image-rendering="optimizeQuality" font-family="sans-serif" stroke-linejoin="round" stroke="black" stroke-opacity="1" stroke-miterlimit="0"
    ><rect fill="none" x="0" width="155" height="35" y="0" clip-path="url(#clipPath3)"
      /><line clip-path="url(#clipPath3)" fill="none" x1="77" x2="77" y1="35" y2="705" stroke-linejoin="bevel" stroke-dasharray="8,3"
    /></g
    ><g font-size="11px" transform="translate(1028,2)" fill-opacity="1" fill="white" text-rendering="geometricPrecision" image-rendering="optimizeQuality" font-family="sans-serif" stroke="white" stroke-opacity="1"
    ><rect x="0" width="119" height="35" y="0" clip-path="url(#clipPath4)" stroke="none"
    /></g
    ><g stroke-linecap="butt" font-size="11px" transform="translate(1028,2)" fill-opacity="1" fill="black" text-rendering="geometricPrecision" image-rendering="optimizeQuality" font-family="sans-serif" stroke-linejoin="round" stroke="black" stroke-opacity="1" stroke-miterlimit="0"
    ><rect fill="none" x="0" width="119" height="35" y="0" clip-path="url(#clipPath4)"
      /><line clip-path="url(#clipPath4)" fill="none" x1="59" x2="59" y1="35" y2="705" stroke-linejoin="bevel" stroke-dasharray="8,3"
    /></g
    ><g font-size="11px" transform="translate(1357,2)" fill-opacity="1" fill="white" text-rendering="geometricPrecision" image-rendering="optimizeQuality" font-family="sans-serif" stroke="white" stroke-opacity="1"
    ><rect x="0" width="92" height="35" y="0" clip-path="url(#clipPath5)" stroke="none"
    /></g
    ><g stroke-linecap="butt" font-size="11px" transform="translate(1357,2)" fill-opacity="1" fill="black" text-rendering="geometricPrecision" image-rendering="optimizeQuality" font-family="sans-serif" stroke-linejoin="round" stroke="black" stroke-opacity="1" stroke-miterlimit="0"
    ><rect fill="none" x="0" width="92" height="35" y="0" clip-path="url(#clipPath5)"
      /><line clip-path="url(#clipPath5)" fill="none" x1="46" x2="46" y1="35" y2="705" stroke-linejoin="bevel" stroke-dasharray="8,3"
    /></g
    ><g font-size="11px" transform="translate(330,112)" fill-opacity="1" fill="white" text-rendering="geometricPrecision" image-rendering="optimizeQuality" font-family="sans-serif" stroke="white" stroke-opacity="1"
    ><rect x="0" width="8" height="510" y="0" clip-path="url(#clipPath6)" stroke="none"
    /></g
    ><g stroke-linecap="butt" font-size="11px" transform="translate(330,112)" fill-opacity="1" fill="black" text-rendering="geometricPrecision" image-rendering="optimizeQuality" font-family="sans-serif" stroke-linejoin="round" stroke="black" stroke-opacity="1" stroke-miterlimit="0"
    ><rect fill="none" x="0" width="8" height="510" y="0" clip-path="url(#clipPath6)"
    /></g
    ><g font-size="11px" transform="translate(670,137)" fill-opacity="1" fill="white" text-rendering="geometricPrecision" image-rendering="optimizeQuality" font-family="sans-serif" stroke="white" stroke-opacity="1"
    ><rect x="0" width="8" height="442" y="0" clip-path="url(#clipPath7)" stroke="none"
    /></g
    ><g stroke-linecap="butt" font-size="11px" transform="translate(670,137)" fill-opacity="1" fill="black" text-rendering="geometricPrecision" image-rendering="optimizeQuality" font-family="sans-serif" stroke-linejoin="round" stroke="black" stroke-opacity="1" stroke-miterlimit="0"
    ><rect fill="none" x="0" width="8" height="442" y="0" clip-path="url(#clipPath7)"
    /></g
    ><g font-size="11px" transform="translate(1400,323)" fill-opacity="1" fill="white" text-rendering="geometricPrecision" image-rendering="optimizeQuality" font-family="sans-serif" stroke="white" stroke-opacity="1"
    ><rect x="0" width="8" height="73" y="0" clip-path="url(#clipPath8)" stroke="none"
    /></g
    ><g stroke-linecap="butt" font-size="11px" transform="translate(1400,323)" fill-opacity="1" fill="black" text-rendering="geometricPrecision" image-rendering="optimizeQuality" font-family="sans-serif" stroke-linejoin="round" stroke="black" stroke-opacity="1" stroke-miterlimit="0"
    ><rect fill="none" x="0" width="8" height="73" y="0" clip-path="url(#clipPath8)"
    /></g
    ><g font-size="11px" transform="translate(1085,163)" fill-opacity="1" fill="white" text-rendering="geometricPrecision" image-rendering="optimizeQuality" font-family="sans-serif" stroke="white" stroke-opacity="1"
    ><rect x="0" width="8" height="373" y="0" clip-path="url(#clipPath9)" stroke="none"
    /></g
    ><g stroke-linecap="butt" font-size="11px" transform="translate(1085,163)" fill-opacity="1" fill="black" text-rendering="geometricPrecision" image-rendering="optimizeQuality" font-family="sans-serif" stroke-linejoin="round" stroke="black" stroke-opacity="1" stroke-miterlimit="0"
    ><rect fill="none" x="0" width="8" height="373" y="0" clip-path="url(#clipPath9)"
    /></g
    ><g font-size="11px" transform="translate(0,37)" fill-opacity="1" fill="black" text-rendering="geometricPrecision" image-rendering="optimizeQuality" font-family="sans-serif" stroke="black" stroke-opacity="1"
    ><text x="10" xml:space="preserve" y="11" clip-path="url(#clipPath10)" stroke="none"
      >Administrator</text
    ></g
    ><g font-size="11px" transform="translate(277,2)" fill-opacity="1" fill="black" text-rendering="geometricPrecision" image-rendering="optimizeQuality" font-family="sans-serif" stroke="black" stroke-opacity="1"
    ><text x="9" xml:space="preserve" y="11" clip-path="url(#clipPath11)" stroke="none"
      >: UpdateProfileUI</text
    ></g
    ><g font-size="11px" transform="translate(596,2)" fill-opacity="1" fill="black" text-rendering="geometricPrecision" image-rendering="optimizeQuality" font-family="sans-serif" stroke="black" stroke-opacity="1"
    ><text x="9" xml:space="preserve" y="11" clip-path="url(#clipPath12)" stroke="none"
      >: UpdateProfileController</text
    ></g
    ><g font-size="11px" transform="translate(1028,2)" fill-opacity="1" fill="black" text-rendering="geometricPrecision" image-rendering="optimizeQuality" font-family="sans-serif" stroke="black" stroke-opacity="1"
    ><text x="6" xml:space="preserve" y="11" clip-path="url(#clipPath13)" stroke="none"
      >: DataManagement</text
    ></g
    ><g font-size="11px" transform="translate(1357,2)" fill-opacity="1" fill="black" text-rendering="geometricPrecision" image-rendering="optimizeQuality" font-family="sans-serif" stroke="black" stroke-opacity="1"
    ><text x="6" xml:space="preserve" y="11" clip-path="url(#clipPath14)" stroke="none"
      >selectedUser :</text
      ><text x="33" xml:space="preserve" y="25" clip-path="url(#clipPath14)" stroke="none"
      >User</text
    ></g
    ><g stroke-linecap="butt" font-size="11px" transform="translate(-22,50)" fill-opacity="1" fill="black" text-rendering="geometricPrecision" image-rendering="optimizeQuality" font-family="sans-serif" stroke-linejoin="round" stroke="black" stroke-opacity="1"
    ><line y2="63" fill="none" x1="62" clip-path="url(#clipPath16)" x2="352" y1="63"
      /><polygon points=" 352 63 340 57 340 69" clip-path="url(#clipPath16)" stroke="none"
      /><polygon fill="none" points=" 352 63 340 57 340 69" clip-path="url(#clipPath16)"
    /></g
    ><g stroke-linecap="butt" font-size="11px" transform="translate(275,75)" fill-opacity="1" fill="black" text-rendering="geometricPrecision" image-rendering="optimizeQuality" font-family="sans-serif" stroke-linejoin="round" stroke="black" stroke-opacity="1"
    ><line y2="63" fill="none" x1="62" clip-path="url(#clipPath18)" x2="395" y1="63"
      /><polygon points=" 395 63 383 57 383 69" clip-path="url(#clipPath18)" stroke="none"
      /><polygon fill="none" points=" 395 63 383 57 383 69" clip-path="url(#clipPath18)"
    /></g
    ><g stroke-linecap="butt" font-size="11px" transform="translate(1030,260)" fill-opacity="1" fill="black" text-rendering="geometricPrecision" image-rendering="optimizeQuality" font-family="sans-serif" stroke-linejoin="round" stroke="black" stroke-opacity="1"
    ><line y2="63" fill="none" x1="62" clip-path="url(#clipPath20)" x2="370" y1="63"
      /><polygon points=" 370 63 358 57 358 69" clip-path="url(#clipPath20)" stroke="none"
      /><polygon fill="none" points=" 370 63 358 57 358 69" clip-path="url(#clipPath20)"
    /></g
    ><g fill-opacity="1" text-rendering="geometricPrecision" stroke="black" stroke-linecap="butt" transform="translate(-22,548)" stroke-miterlimit="0" stroke-opacity="1" fill="black" stroke-dasharray="8,3" font-family="sans-serif" stroke-linejoin="round" font-size="11px" image-rendering="optimizeQuality"
    ><line y2="62" fill="none" x1="352" clip-path="url(#clipPath21)" x2="62" y1="62"
      /><line clip-path="url(#clipPath21)" fill="none" x1="62" x2="74" y1="62" y2="68" stroke-dasharray="none" stroke-miterlimit="10"
      /><line clip-path="url(#clipPath21)" fill="none" x1="62" x2="74" y1="62" y2="56" stroke-dasharray="none" stroke-miterlimit="10"
    /></g
    ><g stroke-linecap="butt" font-size="11px" transform="translate(615,100)" fill-opacity="1" fill="black" text-rendering="geometricPrecision" image-rendering="optimizeQuality" font-family="sans-serif" stroke-linejoin="round" stroke="black" stroke-opacity="1"
    ><line y2="63" fill="none" x1="62" clip-path="url(#clipPath23)" x2="470" y1="63"
      /><polygon points=" 470 63 458 57 458 69" clip-path="url(#clipPath23)" stroke="none"
      /><polygon fill="none" points=" 470 63 458 57 458 69" clip-path="url(#clipPath23)"
    /></g
    ><g stroke-linecap="butt" font-size="11px" transform="translate(1030,173)" fill-opacity="1" fill="black" text-rendering="geometricPrecision" image-rendering="optimizeQuality" font-family="sans-serif" stroke-linejoin="round" stroke="black" stroke-opacity="1"
    ><line y2="62" fill="none" x1="62" clip-path="url(#clipPath25)" x2="92" y1="62"
      /><line y2="82" fill="none" x1="92" clip-path="url(#clipPath25)" x2="92" y1="62"
      /><line y2="82" fill="none" x1="92" clip-path="url(#clipPath25)" x2="62" y1="82"
      /><polygon points=" 62 82 74 88 74 76" clip-path="url(#clipPath25)" stroke="none"
      /><polygon fill="none" points=" 62 82 74 88 74 76" clip-path="url(#clipPath25)"
    /></g
    ><g fill-opacity="1" text-rendering="geometricPrecision" stroke="black" stroke-linecap="butt" transform="translate(1030,321)" stroke-miterlimit="0" stroke-opacity="1" fill="black" stroke-dasharray="8,3" font-family="sans-serif" stroke-linejoin="round" font-size="11px" image-rendering="optimizeQuality"
    ><line y2="63" fill="none" x1="370" clip-path="url(#clipPath26)" x2="63" y1="63"
      /><line clip-path="url(#clipPath26)" fill="none" x1="63" x2="75" y1="63" y2="69" stroke-dasharray="none" stroke-miterlimit="10"
      /><line clip-path="url(#clipPath26)" fill="none" x1="63" x2="75" y1="63" y2="57" stroke-dasharray="none" stroke-miterlimit="10"
    /></g
    ><g fill-opacity="1" text-rendering="geometricPrecision" stroke="black" stroke-linecap="butt" transform="translate(615,463)" stroke-miterlimit="0" stroke-opacity="1" fill="black" stroke-dasharray="8,3" font-family="sans-serif" stroke-linejoin="round" font-size="11px" image-rendering="optimizeQuality"
    ><line y2="62" fill="none" x1="470" clip-path="url(#clipPath27)" x2="62" y1="62"
      /><line clip-path="url(#clipPath27)" fill="none" x1="62" x2="74" y1="62" y2="68" stroke-dasharray="none" stroke-miterlimit="10"
      /><line clip-path="url(#clipPath27)" fill="none" x1="62" x2="74" y1="62" y2="56" stroke-dasharray="none" stroke-miterlimit="10"
    /></g
    ><g fill-opacity="1" text-rendering="geometricPrecision" stroke="black" stroke-linecap="butt" transform="translate(275,505)" stroke-miterlimit="0" stroke-opacity="1" fill="black" stroke-dasharray="8,3" font-family="sans-serif" stroke-linejoin="round" font-size="11px" image-rendering="optimizeQuality"
    ><line y2="63" fill="none" x1="395" clip-path="url(#clipPath28)" x2="62" y1="63"
      /><line clip-path="url(#clipPath28)" fill="none" x1="62" x2="74" y1="63" y2="69" stroke-dasharray="none" stroke-miterlimit="10"
      /><line clip-path="url(#clipPath28)" fill="none" x1="62" x2="74" y1="63" y2="57" stroke-dasharray="none" stroke-miterlimit="10"
    /></g
    ><g stroke-linecap="butt" font-size="11px" transform="translate(1030,383)" fill-opacity="1" fill="black" text-rendering="geometricPrecision" image-rendering="optimizeQuality" font-family="sans-serif" stroke-linejoin="round" stroke="black" stroke-opacity="1"
    ><line y2="63" fill="none" x1="63" clip-path="url(#clipPath29)" x2="93" y1="63"
      /><line y2="83" fill="none" x1="93" clip-path="url(#clipPath29)" x2="93" y1="63"
      /><line y2="83" fill="none" x1="93" clip-path="url(#clipPath29)" x2="63" y1="83"
      /><polygon points=" 63 83 75 89 75 77" clip-path="url(#clipPath29)" stroke="none"
      /><polygon fill="none" points=" 63 83 75 89 75 77" clip-path="url(#clipPath29)"
    /></g
    ><g font-size="11px" transform="translate(1133,441)" fill-opacity="1" fill="white" text-rendering="geometricPrecision" image-rendering="optimizeQuality" font-family="sans-serif" stroke="white" stroke-opacity="1"
    ><rect x="0" width="236" height="39" y="0" clip-path="url(#clipPath30)" stroke="none"
      /><text fill="black" x="96" xml:space="preserve" y="16" clip-path="url(#clipPath30)" stroke="none"
      >1.1.1.4:</text
      ><text fill="black" x="10" xml:space="preserve" y="30" clip-path="url(#clipPath30)" stroke="none"
      >validateUpdatedProfile(actualProfile, ...</text
    ></g
    ><g font-size="11px" transform="translate(448,549)" fill-opacity="1" fill="white" text-rendering="geometricPrecision" image-rendering="optimizeQuality" font-family="sans-serif" stroke="white" stroke-opacity="1"
    ><rect x="0" width="105" height="14" y="0" clip-path="url(#clipPath31)" stroke="none"
      /><text fill="black" x="9" xml:space="preserve" y="11" clip-path="url(#clipPath31)" stroke="none"
      >1.2: true / false</text
    ></g
    ><g font-size="11px" transform="translate(814,505)" fill-opacity="1" fill="white" text-rendering="geometricPrecision" image-rendering="optimizeQuality" font-family="sans-serif" stroke="white" stroke-opacity="1"
    ><rect x="0" width="126" height="13" y="0" clip-path="url(#clipPath32)" stroke="none"
      /><text fill="black" x="9" xml:space="preserve" y="11" clip-path="url(#clipPath32)" stroke="none"
      >1.1.1.5: true / false</text
    ></g
    ><g font-size="11px" transform="translate(1180,366)" fill-opacity="1" fill="white" text-rendering="geometricPrecision" image-rendering="optimizeQuality" font-family="sans-serif" stroke="white" stroke-opacity="1"
    ><rect x="0" width="126" height="14" y="0" clip-path="url(#clipPath33)" stroke="none"
      /><text fill="black" x="9" xml:space="preserve" y="11" clip-path="url(#clipPath33)" stroke="none"
      >1.1.1.3: true / false</text
    ></g
    ><g font-size="11px" transform="translate(1135,235)" fill-opacity="1" fill="white" text-rendering="geometricPrecision" image-rendering="optimizeQuality" font-family="sans-serif" stroke="white" stroke-opacity="1"
    ><rect x="0" width="244" height="14" y="0" clip-path="url(#clipPath34)" stroke="none"
      /><text fill="black" x="10" xml:space="preserve" y="11" clip-path="url(#clipPath34)" stroke="none"
      >1.1.1.1: selectedUser = findUser(userID)</text
    ></g
    ><g font-size="11px" transform="translate(697,115)" fill-opacity="1" fill="white" text-rendering="geometricPrecision" image-rendering="optimizeQuality" font-family="sans-serif" stroke="white" stroke-opacity="1"
    ><rect x="0" width="368" height="43" y="0" clip-path="url(#clipPath35)" stroke="none"
      /><text fill="black" x="19" xml:space="preserve" y="25" clip-path="url(#clipPath35)" stroke="none"
      >1.1.1: updateProfile(userID, actualProfile, pretendedProfile)</text
    ></g
    ><g font-size="11px" transform="translate(63,562)" fill-opacity="1" fill="white" text-rendering="geometricPrecision" image-rendering="optimizeQuality" font-family="sans-serif" stroke="white" stroke-opacity="1"
    ><rect x="0" width="248" height="40" y="0" clip-path="url(#clipPath36)" stroke="none"
      /><text fill="black" x="16" xml:space="preserve" y="17" clip-path="url(#clipPath36)" stroke="none"
      >1.3: Shows data and informs operation</text
      ><text fill="black" x="101" xml:space="preserve" y="31" clip-path="url(#clipPath36)" stroke="none"
      >success</text
    ></g
    ><g font-size="11px" transform="translate(1112,287)" fill-opacity="1" fill="white" text-rendering="geometricPrecision" image-rendering="optimizeQuality" font-family="sans-serif" stroke="white" stroke-opacity="1"
    ><rect x="0" width="265" height="33" y="0" clip-path="url(#clipPath37)" stroke="none"
      /><text fill="black" x="34" xml:space="preserve" y="13" clip-path="url(#clipPath37)" stroke="none"
      >1.1.1.2: updateProfile(actualProfile,</text
      ><text fill="black" x="84" xml:space="preserve" y="27" clip-path="url(#clipPath37)" stroke="none"
      >pretendedProfile)</text
    ></g
    ><g font-size="11px" transform="translate(362,78)" fill-opacity="1" fill="white" text-rendering="geometricPrecision" image-rendering="optimizeQuality" font-family="sans-serif" stroke="white" stroke-opacity="1"
    ><rect x="0" width="287" height="57" y="0" clip-path="url(#clipPath38)" stroke="none"
      /><text fill="black" x="34" xml:space="preserve" y="25" clip-path="url(#clipPath38)" stroke="none"
      >1.1: updateProfile(userID, actualProfile,</text
      ><text fill="black" x="95" xml:space="preserve" y="39" clip-path="url(#clipPath38)" stroke="none"
      >pretendedProfile)</text
    ></g
    ><g font-size="11px" transform="translate(135,92)" fill-opacity="1" fill="white" text-rendering="geometricPrecision" image-rendering="optimizeQuality" font-family="sans-serif" stroke="white" stroke-opacity="1"
    ><rect x="0" width="98" height="14" y="0" clip-path="url(#clipPath39)" stroke="none"
      /><text fill="black" x="10" xml:space="preserve" y="11" clip-path="url(#clipPath39)" stroke="none"
      >1: Inputs data</text
    ></g
    ><g font-size="8px" fill-opacity="1" fill="rgb(120,120,120)" text-rendering="geometricPrecision" image-rendering="optimizeQuality" stroke="rgb(120,120,120)" stroke-opacity="1"
    ><text x="0" xml:space="preserve" y="10" stroke="none"
      >Visual Paradigm Standard(1211757(Instituto Superior de Engenharia do Porto))</text
    ></g
  ></g
></svg
>
